%YAML 1.1
%TAG !u! tag:unity3d.com,2011:
--- !u!1045 &1
EditorBuildSettings:
  m_ObjectHideFlags: 0
  serializedVersion: 2
  m_Scenes:
  - enabled: 1
    path: Assets/Scenes/Menu.unity
    guid: 2e991f940028e480789c223e679479b8
  - enabled: 1
    path: Assets/Scenes/GameScene.unity
    guid: 9fc0d4010bbf28b4594072e72b8655ab
  - enabled: 0
    path: 
    guid: 3f13aff4b64204f7cbca8ea7a3c9f735
  - enabled: 1
    path: Assets/Scenes/Result.unity
    guid: 1bf8f901bbdbc4093b76180fae574503
  - enabled: 1
    path: Assets/Scenes/LooserScene.unity
    guid: 976c20664abcf45c9af4781690acabf7
  - enabled: 1
    path: Assets/Scenes/WinnerResult.unity
    guid: 9e94cf7ce83464371ad551d97177c732
  m_configObjects: {}
